{"count":367,"next":"https://pokeapi.co/api/v2/ability/?offset=10&limit=10","previous":null,"results":[{"name":"stench","url":"https://pokeapi.co/api/v2/ability/1/"},{"name":"drizzle","url":"https://pokeapi.co/api/v2/ability/2/"},{"name":"speed-boost","url":"https://pokeapi.co/api/v2/ability/3/"},{"name":"battle-armor","url":"https://pokeapi.co/api/v2/ability/4/"},{"name":"sturdy","url":"https://pokeapi.co/api/v2/ability/5/"},{"name":"damp","url":"https://pokeapi.co/api/v2/ability/6/"},{"name":"limber","url":"https://pokeapi.co/api/v2/ability/7/"},{"name":"sand-veil","url":"https://pokeapi.co/api/v2/ability/8/"},{"name":"static","url":"https://pokeapi.co/api/v2/ability/9/"},{"name":"volt-absorb","url":"https://pokeapi.co/api/v2/ability/10/"}]}